{
  "notices": {
    "content": [
      {
        "id": 511,
        "title": "[파라과이] 공지사항",
        "content": "...",
        "author": "홍길동",
        "createdDate": "2022-04-11T10:23:45.774"
      },
      {
        "id": 510,
        "title": "[파라과이] 공지사항",
        "content": "...",
        "author": "홍길동",
        "createdDate": "2022-04-11T10:23:45.773"
      },
      {
        "id": 509,
        "title": "[파라과이] 공지사항",
        "content": "...",
        "author": "홍길동",
        "createdDate": "2022-04-11T10:23:45.773"
      },
      {
        "id": 508,
        "title": "[파라과이] 공지사항",
        "content": "...",
        "author": "홍길동",
        "createdDate": "2022-04-11T10:23:45.772"
      },
      {
        "id": 507,
        "title": "[파라과이] 공지사항",
        "content": "...",
        "author": "홍길동",
        "createdDate": "2022-04-11T10:23:45.772"
      },
      {
        "id": 506,
        "title": "[파라과이] 공지사항",
        "content": "...",
        "author": "홍길동",
        "createdDate": "2022-04-11T10:23:45.771"
      },
      {
        "id": 505,
        "title": "[파라과이] 공지사항",
        "content": "...",
        "author": "홍길동",
        "createdDate": "2022-04-11T10:23:45.771"
      },
      {
        "id": 504,
        "title": "[파라과이] 공지사항",
        "content": "...",
        "author": "홍길동",
        "createdDate": "2022-04-11T10:23:45.77"
      },
      {
        "id": 503,
        "title": "[파라과이] 공지사항",
        "content": "...",
        "author": "홍길동",
        "createdDate": "2022-04-11T10:23:45.769"
      },
      {
        "id": 502,
        "title": "[파라과이] 공지사항",
        "content": "...",
        "author": "홍길동",
        "createdDate": "2022-04-11T10:23:45.768"
      }
    ],
    "pageable": {
      "sort": {
        "unsorted": false,
        "sorted": true,
        "empty": false
      },
      "pageSize": 10,
      "pageNumber": 62,
      "offset": 620,
      "unpaged": false,
      "paged": true
    },
    "totalPages": 114,
    "totalElements": 1131,
    "last": false,
    "numberOfElements": 10,
    "first": false,
    "size": 10,
    "number": 62,
    "sort": {
      "unsorted": false,
      "sorted": true,
      "empty": false
    },
    "empty": false
  }
}
